{"count":328,"next":"https://ll.thespacedevs.com/2.0.0/launch/upcoming/?limit=10&offset=10","previous":null,"results":[{"id":"cd199e27-63cd-409c-817c-5c38039b17cd","url":"https://ll.thespacedevs.com/2.0.0/launch/cd199e27-63cd-409c-817c-5c38039b17cd/","launch_library_id":null,"slug":"vulcan-vc2s-certification-flight-2","name":"Vulcan VC2S | Certification Flight 2","status":{"id":3,"name":"Success"},"net":"2024-10-04T11:25:00Z","window_end":"2024-10-04T13:00:00Z","window_start":"2024-10-04T10:00:00Z","inhold":false,"tbdtime":false,"tbddate":false,"probability":95,"holdreason":"","failreason":"","hashtag":null,"launch_service_provider":{"id":124,"url":"https://ll.thespacedevs.com/2.0.0/agencies/124/","name":"United Launch Alliance","type":"Commercial"},"rocket":{"id":8277,"configuration":{"id":201,"launch_library_id":228,"url":"https://ll.thespacedevs.com/2.0.0/config/launcher/201/","name":"Vulcan VC2S","family":"Vulcan","full_name":"Vulcan VC2S","variant":"VC2S"}},"mission":{"id":6858,"launch_library_id":null,"name":"Certification Flight 2","description":"Replacement Vulcan test launch with inert payload, experiments, and demonstrations for certification with the USSF after delays caused by payload testing of the Sierra Space Dreamchaser CRS SNC-1 mission, the original planned payload.\r\n\r\nOne of the GEM-63XL SRBs was observed to blown out its booster nozzle at T+37 seconds, causing reduced and asymmetric thrust during ascent, however the performance shortfall was fully compensated by Vulcan's other stages.","launch_designator":null,"type":"Test Flight","orbit":{"id":6,"name":"Heliocentric N/A","abbrev":"Helio-N/A"}},"pad":{"id":29,"url":"https://ll.thespacedevs.com/2.0.0/pad/29/","agency_id":null,"name":"Space Launch Complex 41","info_url":null,"wiki_url":"https://en.wikipedia.org/wiki/Cape_Canaveral_Air_Force_Station_Space_Launch_Complex_41","map_url":"https://www.google.com/maps?q=28.58341025,-80.58303644","latitude":"28.58341025","longitude":"-80.58303644","location":{"id":12,"url":"https://ll.thespacedevs.com/2.0.0/location/12/","name":"Cape Canaveral SFS, FL, USA","country_code":"USA","map_image":"https://thespacedevs-prod.nyc3.digitaloceanspaces.com/media/map_images/location_12_20200803142519.jpg","total_launch_count":977,"total_landing_count":57},"map_image":"https://thespacedevs-prod.nyc3.digitaloceanspaces.com/media/map_images/pad_29_20200803143528.jpg","total_launch_count":114},"webcast_live":false,"image":"https://thespacedevs-prod.nyc3.digitaloceanspaces.com/media/images/vulcan_image_20240107162928.jpeg","infographic":null,"program":[]},{"id":"e1ffdd01-c146-44d0-a250-b845dc2eb20d","url":"https://ll.thespacedevs.com/2.0.0/launch/e1ffdd01-c146-44d0-a250-b845dc2eb20d/","launch_library_id":null,"slug":"falcon-9-block-5-hera","name":"Falcon 9 Block 5 | Hera","status":{"id":1,"name":"Go"},"net":"2024-10-07T14:52:00Z","window_end":"2024-10-07T15:27:00Z","window_start":"2024-10-07T14:47:00Z","inhold":false,"tbdtime":false,"tbddate":false,"probability":null,"holdreason":"","failreason":"","hashtag":null,"launch_service_provider":{"id":121,"url":"https://ll.thespacedevs.com/2.0.0/agencies/121/","name":"SpaceX","type":"Commercial"},"rocket":{"id":7689,"configuration":{"id":164,"launch_library_id":188,"url":"https://ll.thespacedevs.com/2.0.0/config/launcher/164/","name":"Falcon 9","family":"Falcon","full_name":"Falcon 9 Block 5","variant":"Block 5"}},"mission":{"id":6496,"launch_library_id":null,"name":"Hera","description":"Hera is a space mission in development at the European Space Agency in its Space Safety program. Its primary objective is to study the Didymos binary asteroid system that was impacted by DART and contribute to validation of the kinetic impact method to deviate a near-Earth asteroid in a colliding trajectory with Earth. It will measure the size and the morphology of the crater created by and momentum transferred by an artificial projectile impacting an asteroid, which will allow measuring the efficiency of the deflection produced by the impact. It will also analyze the expanding debris cloud caused by the impact.","launch_designator":null,"type":"Robotic Exploration","orbit":{"id":21,"name":"Asteroid","abbrev":"Asteroid"}},"pad":{"id":80,"url":"https://ll.thespacedevs.com/2.0.0/pad/80/","agency_id":121,"name":"Space Launch Complex 40","info_url":null,"wiki_url":"https://en.wikipedia.org/wiki/Cape_Canaveral_Air_Force_Station_Space_Launch_Complex_40","map_url":"https://www.google.com/maps?q=28.56194122,-80.57735736","latitude":"28.56194122","longitude":"-80.57735736","location":{"id":12,"url":"https://ll.thespacedevs.com/2.0.0/location/12/","name":"Cape Canaveral SFS, FL, USA","country_code":"USA","map_image":"https://thespacedevs-prod.nyc3.digitaloceanspaces.com/media/map_images/location_12_20200803142519.jpg","total_launch_count":977,"total_landing_count":57},"map_image":"https://thespacedevs-prod.nyc3.digitaloceanspaces.com/media/map_images/pad_80_20200803143323.jpg","total_launch_count":263},"webcast_live":false,"image":"https://thespacedevs-prod.nyc3.digitaloceanspaces.com/media/images/falcon_9_image_20230807133459.jpeg","infographic":null,"program":[]},{"id":"828095e3-1c38-4700-9dd2-a700162fbd15","url":"https://ll.thespacedevs.com/2.0.0/launch/828095e3-1c38-4700-9dd2-a700162fbd15/","launch_library_id":null,"slug":"new-shepard-ns-27","name":"New Shepard | NS-27","status":{"id":2,"name":"TBD"},"net":"2024-10-07T15:00:00Z","window_end":"2024-10-07T15:00:00Z","window_start":"2024-10-07T15:00:00Z","inhold":false,"tbdtime":false,"tbddate":false,"probability":null,"holdreason":"","failreason":"","hashtag":null,"launch_service_provider":{"id":141,"url":"https://ll.thespacedevs.com/2.0.0/agencies/141/","name":"Blue Origin","type":"Commercial"},"rocket":{"id":8368,"configuration":{"id":137,"launch_library_id":9999,"url":"https://ll.thespacedevs.com/2.0.0/config/launcher/137/","name":"New Shepard","family":"","full_name":"New Shepard","variant":""}},"mission":{"id":6949,"launch_library_id":null,"name":"NS-27","description":"Twenty-seventh flight of New Shepard,flying unmanned as a test for the newest booster.","launch_designator":null,"type":"Suborbital","orbit":{"id":15,"name":"Suborbital","abbrev":"Sub"}},"pad":{"id":90,"url":"https://ll.thespacedevs.com/2.0.0/pad/90/","agency_id":141,"name":"West Texas Suborbital Launch Site/ Corn Ranch","info_url":"http://www.blueorigin.com","wiki_url":"https://en.wikipedia.org/wiki/Corn_Ranch","map_url":"https://www.google.com/maps?q=31.422878000000000,-104.757121000000000","latitude":"31.422878","longitude":"-104.757121","location":{"id":29,"url":"https://ll.thespacedevs.com/2.0.0/location/29/","name":"Corn Ranch, Van Horn, TX, USA","country_code":"USA","map_image":"https://thespacedevs-prod.nyc3.digitaloceanspaces.com/media/map_images/location_29_20200803142436.jpg","total_launch_count":26,"total_landing_count":26},"map_image":"https://thespacedevs-prod.nyc3.digitaloceanspaces.com/media/map_images/pad_90_20200803143233.jpg","total_launch_count":26},"webcast_live":false,"image":"https://thespacedevs-prod.nyc3.digitaloceanspaces.com/media/images/new_shepard_lif_image_20240621062033.jpeg","infographic":null,"program":[]},{"id":"525ed290-dd97-4187-9118-d71f0b8285be","url":"https://ll.thespacedevs.com/2.0.0/launch/525ed290-dd97-4187-9118-d71f0b8285be/","launch_library_id":null,"slug":"falcon-9-block-5-oneweb-20","name":"Falcon 9 Block 5 | OneWeb 20","status":{"id":2,"name":"TBD"},"net":"2024-10-09T06:03:00Z","window_end":"2024-10-09T06:43:00Z","window_start":"2024-10-09T06:03:00Z","inhold":false,"tbdtime":false,"tbddate":false,"probability":null,"holdreason":"","failreason":"","hashtag":null,"launch_service_provider":{"id":121,"url":"https://ll.thespacedevs.com/2.0.0/agencies/121/","name":"SpaceX","type":"Commercial"},"rocket":{"id":8309,"configuration":{"id":164,"launch_library_id":188,"url":"https://ll.thespacedevs.com/2.0.0/config/launcher/164/","name":"Falcon 9","family":"Falcon","full_name":"Falcon 9 Block 5","variant":"Block 5"}},"mission":{"id":6890,"launch_library_id":null,"name":"OneWeb 20","description":"A batch of 20 satellites for the OneWeb satellite constellation, which is intended to provide global Internet broadband service for individual consumers. The constellation is planned to have around 648 microsatellites (of which 60 are spares), around 150 kg each, operating in Ku-band from low Earth orbit.","launch_designator":null,"type":"Communications","orbit":{"id":13,"name":"Polar Orbit","abbrev":"PO"}},"pad":{"id":16,"url":"https://ll.thespacedevs.com/2.0.0/pad/16/","agency_id":null,"name":"Space Launch Complex 4E","info_url":null,"wiki_url":"https://en.wikipedia.org/wiki/Vandenberg_Space_Launch_Complex_4#SLC-4E","map_url":"https://www.google.com/maps?q=34.632,-120.611","latitude":"34.632","longitude":"-120.611","location":{"id":11,"url":"https://ll.thespacedevs.com/2.0.0/location/11/","name":"Vandenberg SFB, CA, USA","country_code":"USA","map_image":"https://thespacedevs-prod.nyc3.digitaloceanspaces.com/media/map_images/location_11_20200803142416.jpg","total_launch_count":772,"total_landing_count":20},"map_image":"https://thespacedevs-prod.nyc3.digitaloceanspaces.com/media/map_images/pad_16_20200803143532.jpg","total_launch_count":160},"webcast_live":false,"image":"https://thespacedevs-prod.nyc3.digitaloceanspaces.com/media/images/falcon2520925_image_20240101100955.jpeg","infographic":null,"program":[{"id":26,"url":"https://ll.thespacedevs.com/2.0.0/program/26/","name":"OneWeb","description":"Satellite constellation in low Earth orbit that can provide high-speed broadband internet to rural and isolated areas.","agencies":[{"id":1081,"url":"https://ll.thespacedevs.com/2.0.0/agencies/1081/","name":"Eutelsat OneWeb","type":"Commercial"}],"image_url":"https://thespacedevs-prod.nyc3.digitaloceanspaces.com/media/images/oneweb_program_20231228155842.jpeg","start_date":"2019-02-27T21:37:00Z","end_date":null,"info_url":"https://oneweb.net/","wiki_url":"https://en.wikipedia.org/wiki/Eutelsat_OneWeb"}]},{"id":"59548105-347d-4477-8747-7fc3f91016c5","url":"https://ll.thespacedevs.com/2.0.0/launch/59548105-347d-4477-8747-7fc3f91016c5/","launch_library_id":2040,"slug":"falcon-heavy-europa-clipper","name":"Falcon Heavy | Europa Clipper","status":{"id":1,"name":"Go"},"net":"2024-10-10T16:31:00Z","window_end":"2024-10-10T16:31:00Z","window_start":"2024-10-10T16:31:00Z","inhold":false,"tbdtime":false,"tbddate":false,"probability":null,"holdreason":"","failreason":"","hashtag":null,"launch_service_provider":{"id":121,"url":"https://ll.thespacedevs.com/2.0.0/agencies/121/","name":"SpaceX","type":"Commercial"},"rocket":{"id":2663,"configuration":{"id":161,"launch_library_id":58,"url":"https://ll.thespacedevs.com/2.0.0/config/launcher/161/","name":"Falcon Heavy","family":"Falcon","full_name":"Falcon Heavy","variant":"Heavy"}},"mission":{"id":1087,"launch_library_id":1284,"name":"Europa Clipper","description":"Europa Clipper is the first dedicated mission to study Jupiter's moon Europa. Mission is developed by NASA and comprises of an orbiter spacecraft, which, while in orbit around Jupiter, will perform numerous flybys over Europa. Europa Clipper payload suit included high-resolution cameras and spectrometers for imaging Europa's surface and thin atmosphere, an ice-penetrating radar to search for subsurface water, and a magnetometer and gravity measurements to measure the moon's magnetic field and unlock clues about its ocean and deep interior.","launch_designator":null,"type":"Planetary Science","orbit":{"id":6,"name":"Heliocentric N/A","abbrev":"Helio-N/A"}},"pad":{"id":87,"url":"https://ll.thespacedevs.com/2.0.0/pad/87/","agency_id":121,"name":"Launch Complex 39A","info_url":null,"wiki_url":"https://en.wikipedia.org/wiki/Kennedy_Space_Center_Launch_Complex_39#Launch_Pad_39A","map_url":"https://www.google.com/maps?q=28.60822681,-80.60428186","latitude":"28.60822681","longitude":"-80.60428186","location":{"id":27,"url":"https://ll.thespacedevs.com/2.0.0/location/27/","name":"Kennedy Space Center, FL, USA","country_code":"USA","map_image":"https://thespacedevs-prod.nyc3.digitaloceanspaces.com/media/map_images/location_27_20200803142447.jpg","total_launch_count":243,"total_landing_count":0},"map_image":"https://thespacedevs-prod.nyc3.digitaloceanspaces.com/media/map_images/pad_87_20200803143537.jpg","total_launch_count":185},"webcast_live":false,"image":"https://thespacedevs-prod.nyc3.digitaloceanspaces.com/media/images/falcon_heavy_image_20220129192819.jpeg","infographic":null,"program":[]},{"id":"aa429cd7-a947-430a-9956-72dff1ab9c60","url":"https://ll.thespacedevs.com/2.0.0/launch/aa429cd7-a947-430a-9956-72dff1ab9c60/","launch_library_id":null,"slug":"h3-22-dsn-3-kirameki-3","name":"H3-22 | DSN 3 (Kirameki 3)","status":{"id":1,"name":"Go"},"net":"2024-10-26T06:44:00Z","window_end":"2024-10-26T08:30:00Z","window_start":"2024-10-26T06:44:00Z","inhold":false,"tbdtime":false,"tbddate":false,"probability":null,"holdreason":"","failreason":"","hashtag":null,"launch_service_provider":{"id":98,"url":"https://ll.thespacedevs.com/2.0.0/agencies/98/","name":"Mitsubishi Heavy Industries","type":"Commercial"},"rocket":{"id":7772,"configuration":{"id":486,"launch_library_id":null,"url":"https://ll.thespacedevs.com/2.0.0/config/launcher/486/","name":"H3-22","family":"H3","full_name":"H3-22","variant":"22"}},"mission":{"id":6290,"launch_library_id":null,"name":"DSN 3 (Kirameki 3)","description":"DSN 3, also known as Kirameki 3, is a geostationary communications satellite to be used for military communications by the Japanese military.","launch_designator":null,"type":"Communications","orbit":{"id":2,"name":"Geostationary Transfer Orbit","abbrev":"GTO"}},"pad":{"id":209,"url":"https://ll.thespacedevs.com/2.0.0/pad/209/","agency_id":37,"name":"Yoshinobu Launch Complex LP-2","info_url":null,"wiki_url":"https://en.wikipedia.org/wiki/Yoshinobu_Launch_Complex","map_url":"https://www.google.com/maps?q=30.400938,130.97564","latitude":"30.400938","longitude":"130.97564","location":{"id":26,"url":"https://ll.thespacedevs.com/2.0.0/location/26/","name":"Tanegashima Space Center, Japan","country_code":"JPN","map_image":"https://thespacedevs-prod.nyc3.digitaloceanspaces.com/media/map_images/location_26_20200803142507.jpg","total_launch_count":92,"total_landing_count":0},"map_image":"https://thespacedevs-prod.nyc3.digitaloceanspaces.com/media/map_images/pad_yoshinobu_launch_complex_lp-2_20230707124715.jpg","total_launch_count":12},"webcast_live":false,"image":"https://thespacedevs-prod.nyc3.digitaloceanspaces.com/media/images/h3-22_image_20230307130808.jpeg","infographic":null,"program":[]},{"id":"f97bce95-052e-4fa9-80e8-dbedf16bc516","url":"https://ll.thespacedevs.com/2.0.0/launch/f97bce95-052e-4fa9-80e8-dbedf16bc516/","launch_library_id":null,"slug":"falcon-9-block-5-dragon-crs-2-spx-31","name":"Falcon 9 Block 5 | Dragon CRS-2 SpX-31","status":{"id":2,"name":"TBD"},"net":"2024-10-30T04:49:00Z","window_end":"2024-10-30T04:49:00Z","window_start":"2024-10-30T04:49:00Z","inhold":false,"tbdtime":false,"tbddate":false,"probability":null,"holdreason":"","failreason":"","hashtag":null,"launch_service_provider":{"id":121,"url":"https://ll.thespacedevs.com/2.0.0/agencies/121/","name":"SpaceX","type":"Commercial"},"rocket":{"id":7744,"configuration":{"id":164,"launch_library_id":188,"url":"https://ll.thespacedevs.com/2.0.0/config/launcher/164/","name":"Falcon 9","family":"Falcon","full_name":"Falcon 9 Block 5","variant":"Block 5"}},"mission":{"id":6262,"launch_library_id":null,"name":"Dragon CRS-2 SpX-31","description":"31st commercial resupply services mission to the International Space Station operated by SpaceX. The flight will be conducted under the second Commercial Resupply Services contract with NASA.\r\n\r\nCargo Dragon 2 brings supplies and payloads, including critical materials to directly support science and research investigations that occur onboard the orbiting laboratory.","launch_designator":null,"type":"Resupply","orbit":{"id":8,"name":"Low Earth Orbit","abbrev":"LEO"}},"pad":{"id":87,"url":"https://ll.thespacedevs.com/2.0.0/pad/87/","agency_id":121,"name":"Launch Complex 39A","info_url":null,"wiki_url":"https://en.wikipedia.org/wiki/Kennedy_Space_Center_Launch_Complex_39#Launch_Pad_39A","map_url":"https://www.google.com/maps?q=28.60822681,-80.60428186","latitude":"28.60822681","longitude":"-80.60428186","location":{"id":27,"url":"https://ll.thespacedevs.com/2.0.0/location/27/","name":"Kennedy Space Center, FL, USA","country_code":"USA","map_image":"https://thespacedevs-prod.nyc3.digitaloceanspaces.com/media/map_images/location_27_20200803142447.jpg","total_launch_count":243,"total_landing_count":0},"map_image":"https://thespacedevs-prod.nyc3.digitaloceanspaces.com/media/map_images/pad_87_20200803143537.jpg","total_launch_count":185},"webcast_live":false,"image":"https://thespacedevs-prod.nyc3.digitaloceanspaces.com/media/images/falcon2520925_image_20210520085648.jpeg","infographic":null,"program":[{"id":11,"url":"https://ll.thespacedevs.com/2.0.0/program/11/","name":"Commercial Resupply Services","description":"Commercial Resupply Services (CRS) are a series of flights awarded by NASA for the delivery of cargo and supplies to the International Space Station.The first CRS contracts were signed in 2008 and awarded $1.6 billion to SpaceX for twelve cargo Dragon and $1.9 billion to Orbital Sciences for eight Cygnus flights, covering deliveries to 2016. The Falcon 9 and Antares rockets were also developed under the CRS program to deliver cargo spacecraft to the ISS.","agencies":[{"id":44,"url":"https://ll.thespacedevs.com/2.0.0/agencies/44/","name":"National Aeronautics and Space Administration","type":"Government"},{"id":257,"url":"https://ll.thespacedevs.com/2.0.0/agencies/257/","name":"Northrop Grumman Space Systems","type":"Commercial"},{"id":1020,"url":"https://ll.thespacedevs.com/2.0.0/agencies/1020/","name":"Sierra Nevada Corporation","type":"Commercial"},{"id":121,"url":"https://ll.thespacedevs.com/2.0.0/agencies/121/","name":"SpaceX","type":"Commercial"}],"image_url":"https://thespacedevs-prod.nyc3.digitaloceanspaces.com/media/images/commercial2520_program_20201129212219.png","start_date":"2008-12-23T00:00:00Z","end_date":null,"info_url":null,"wiki_url":"https://en.wikipedia.org/wiki/Commercial_Resupply_Services#Commercial_Resupply_Services"},{"id":17,"url":"https://ll.thespacedevs.com/2.0.0/program/17/","name":"International Space Station","description":"The International Space Station programme is tied together by a complex set of legal, political and financial agreements between the sixteen nations involved in the project, governing ownership of the various components, rights to crewing and utilization, and responsibilities for crew rotation and resupply of the International Space Station. It was conceived in 1984 by President Ronald Reagan, during the Space Station Freedom project as it was originally called.","agencies":[{"id":16,"url":"https://ll.thespacedevs.com/2.0.0/agencies/16/","name":"Canadian Space Agency","type":"Government"},{"id":27,"url":"https://ll.thespacedevs.com/2.0.0/agencies/27/","name":"European Space Agency","type":"Multinational"},{"id":37,"url":"https://ll.thespacedevs.com/2.0.0/agencies/37/","name":"Japan Aerospace Exploration Agency","type":"Government"},{"id":44,"url":"https://ll.thespacedevs.com/2.0.0/agencies/44/","name":"National Aeronautics and Space Administration","type":"Government"},{"id":63,"url":"https://ll.thespacedevs.com/2.0.0/agencies/63/","name":"Russian Federal Space Agency (ROSCOSMOS)","type":"Government"}],"image_url":"https://thespacedevs-prod.nyc3.digitaloceanspaces.com/media/images/international2_program_20201129184745.png","start_date":"1998-11-20T06:40:00Z","end_date":null,"info_url":"https://www.nasa.gov/mission_pages/station/main/index.html","wiki_url":"https://en.wikipedia.org/wiki/International_Space_Station_programme"}]},{"id":"28c2b327-bb20-452d-b1df-c100265d6aa5","url":"https://ll.thespacedevs.com/2.0.0/launch/28c2b327-bb20-452d-b1df-c100265d6aa5/","launch_library_id":null,"slug":"long-march-2fg-shenzhou-19","name":"Long March 2F/G | Shenzhou 19","status":{"id":2,"name":"TBD"},"net":"2024-10-31T00:00:00Z","window_end":"2024-10-31T00:00:00Z","window_start":"2024-10-31T00:00:00Z","inhold":false,"tbdtime":true,"tbddate":true,"probability":null,"holdreason":"","failreason":"","hashtag":null,"launch_service_provider":{"id":88,"url":"https://ll.thespacedevs.com/2.0.0/agencies/88/","name":"China Aerospace Science and Technology Corporation","type":"Government"},"rocket":{"id":8102,"configuration":{"id":84,"launch_library_id":111,"url":"https://ll.thespacedevs.com/2.0.0/config/launcher/84/","name":"Long March 2","family":"Long March","full_name":"Long March 2F/G","variant":"F/G"}},"mission":{"id":6660,"launch_library_id":null,"name":"Shenzhou 19","description":"Eighth crewed flight to the Chinese space station.","launch_designator":null,"type":"Human Exploration","orbit":{"id":8,"name":"Low Earth Orbit","abbrev":"LEO"}},"pad":{"id":37,"url":"https://ll.thespacedevs.com/2.0.0/pad/37/","agency_id":null,"name":"Launch Area 4 (SLS-1 / 921)","info_url":null,"wiki_url":"https://en.wikipedia.org/wiki/Jiuquan_Launch_Area_4","map_url":"https://www.google.com/maps?q=40.957893,100.290944","latitude":"40.957893","longitude":"100.290944","location":{"id":17,"url":"https://ll.thespacedevs.com/2.0.0/location/17/","name":"Jiuquan Satellite Launch Center, People's Republic of China","country_code":"CHN","map_image":"https://thespacedevs-prod.nyc3.digitaloceanspaces.com/media/map_images/location_17_20200803142429.jpg","total_launch_count":231,"total_landing_count":0},"map_image":"https://thespacedevs-prod.nyc3.digitaloceanspaces.com/media/map_images/pad_37_20200803143603.jpg","total_launch_count":23},"webcast_live":false,"image":"https://thespacedevs-prod.nyc3.digitaloceanspaces.com/media/images/long_march_2_image_20210908195835.jpeg","infographic":null,"program":[{"id":7,"url":"https://ll.thespacedevs.com/2.0.0/program/7/","name":"Shenzhou","description":"The Shenzhou program is a crewed spaceflight initiative by China. The program put the first Chinese citizen, Yang Liwei, into orbit on 15 October 2003.","agencies":[{"id":17,"url":"https://ll.thespacedevs.com/2.0.0/agencies/17/","name":"China National Space Administration","type":"Government"}],"image_url":"https://thespacedevs-prod.nyc3.digitaloceanspaces.com/media/images/shenzhou_program_20200820204745.PNG","start_date":"1993-01-01T00:00:00Z","end_date":null,"info_url":null,"wiki_url":"https://en.wikipedia.org/wiki/Shenzhou_program"},{"id":19,"url":"https://ll.thespacedevs.com/2.0.0/program/19/","name":"Tiangong space station","description":"The Tiangong space station is a space station placed in Low Earth orbit between 340 and 450 km above the surface.","agencies":[{"id":88,"url":"https://ll.thespacedevs.com/2.0.0/agencies/88/","name":"China Aerospace Science and Technology Corporation","type":"Government"}],"image_url":"https://thespacedevs-prod.nyc3.digitaloceanspaces.com/media/images/chinese2520spa_program_20210608105528.png","start_date":"2021-04-29T03:23:00Z","end_date":null,"info_url":null,"wiki_url":"https://en.wikipedia.org/wiki/Tiangong_space_station"}]},{"id":"2de44368-01af-448f-b0fb-d7aacdd86c0e","url":"https://ll.thespacedevs.com/2.0.0/launch/2de44368-01af-448f-b0fb-d7aacdd86c0e/","launch_library_id":null,"slug":"ceres-1-unknown-payload","name":"Ceres-1 | Unknown Payload","status":{"id":2,"name":"TBD"},"net":"2024-10-31T00:00:00Z","window_end":"2024-10-31T00:00:00Z","window_start":"2024-10-31T00:00:00Z","inhold":false,"tbdtime":true,"tbddate":true,"probability":null,"holdreason":"","failreason":"","hashtag":null,"launch_service_provider":{"id":1021,"url":"https://ll.thespacedevs.com/2.0.0/agencies/1021/","name":"Galactic Energy","type":"Commercial"},"rocket":{"id":8318,"configuration":{"id":461,"launch_library_id":null,"url":"https://ll.thespacedevs.com/2.0.0/config/launcher/461/","name":"Ceres-1","family":"Ceres-1","full_name":"Ceres-1","variant":"Ceres-1"}},"mission":{"id":6899,"launch_library_id":null,"name":"Unknown Payload","description":"Details TBD.","launch_designator":null,"type":"Unknown","orbit":{"id":25,"name":"Unknown","abbrev":"N/A"}},"pad":{"id":21,"url":"https://ll.thespacedevs.com/2.0.0/pad/21/","agency_id":null,"name":"Launch Area 95A","info_url":null,"wiki_url":"https://en.wikipedia.org/wiki/Jiuquan_Satellite_Launch_Center","map_url":"https://www.google.com/maps?q=40.969117,100.343333","latitude":"40.969117","longitude":"100.343333","location":{"id":17,"url":"https://ll.thespacedevs.com/2.0.0/location/17/","name":"Jiuquan Satellite Launch Center, People's Republic of China","country_code":"CHN","map_image":"https://thespacedevs-prod.nyc3.digitaloceanspaces.com/media/map_images/location_17_20200803142429.jpg","total_launch_count":231,"total_landing_count":0},"map_image":"https://thespacedevs-prod.nyc3.digitaloceanspaces.com/media/map_images/pad_21_20200803143253.jpg","total_launch_count":55},"webcast_live":false,"image":"https://thespacedevs-prod.nyc3.digitaloceanspaces.com/media/images/ceres-1_image_20230722081939.jpeg","infographic":null,"program":[]},{"id":"9d576892-dcf0-472b-92d1-37053ff549ab","url":"https://ll.thespacedevs.com/2.0.0/launch/9d576892-dcf0-472b-92d1-37053ff549ab/","launch_library_id":null,"slug":"falcon-9-block-5-starlink-group-10-10","name":"Falcon 9 Block 5 | Starlink Group 10-10","status":{"id":2,"name":"TBD"},"net":"2024-10-31T00:00:00Z","window_end":"2024-10-31T00:00:00Z","window_start":"2024-10-31T00:00:00Z","inhold":false,"tbdtime":true,"tbddate":true,"probability":null,"holdreason":"","failreason":"","hashtag":null,"launch_service_provider":{"id":121,"url":"https://ll.thespacedevs.com/2.0.0/agencies/121/","name":"SpaceX","type":"Commercial"},"rocket":{"id":8363,"configuration":{"id":164,"launch_library_id":188,"url":"https://ll.thespacedevs.com/2.0.0/config/launcher/164/","name":"Falcon 9","family":"Falcon","full_name":"Falcon 9 Block 5","variant":"Block 5"}},"mission":{"id":6944,"launch_library_id":null,"name":"Starlink Group 10-10","description":"A batch of satellites for the Starlink mega-constellation - SpaceX's project for space-based Internet communication system.","launch_designator":null,"type":"Communications","orbit":{"id":8,"name":"Low Earth Orbit","abbrev":"LEO"}},"pad":{"id":80,"url":"https://ll.thespacedevs.com/2.0.0/pad/80/","agency_id":121,"name":"Space Launch Complex 40","info_url":null,"wiki_url":"https://en.wikipedia.org/wiki/Cape_Canaveral_Air_Force_Station_Space_Launch_Complex_40","map_url":"https://www.google.com/maps?q=28.56194122,-80.57735736","latitude":"28.56194122","longitude":"-80.57735736","location":{"id":12,"url":"https://ll.thespacedevs.com/2.0.0/location/12/","name":"Cape Canaveral SFS, FL, USA","country_code":"USA","map_image":"https://thespacedevs-prod.nyc3.digitaloceanspaces.com/media/map_images/location_12_20200803142519.jpg","total_launch_count":977,"total_landing_count":57},"map_image":"https://thespacedevs-prod.nyc3.digitaloceanspaces.com/media/map_images/pad_80_20200803143323.jpg","total_launch_count":263},"webcast_live":false,"image":"https://thespacedevs-prod.nyc3.digitaloceanspaces.com/media/images/falcon2520925_image_20221009234147.png","infographic":null,"program":[{"id":25,"url":"https://ll.thespacedevs.com/2.0.0/program/25/","name":"Starlink","description":"Starlink is a satellite internet constellation operated by American aerospace company SpaceX","agencies":[{"id":121,"url":"https://ll.thespacedevs.com/2.0.0/agencies/121/","name":"SpaceX","type":"Commercial"}],"image_url":"https://thespacedevs-prod.nyc3.digitaloceanspaces.com/media/images/starlink_program_20231228154508.jpeg","start_date":"2018-02-22T14:17:00Z","end_date":null,"info_url":"https://starlink.com","wiki_url":"https://en.wikipedia.org/wiki/Starlink"}]}]}